{
	"key": "jsd_plugin",
	"baseUrl": "https://jsdplugin1.veristor.com/",
	"name": "Forty8FiftyLabs Splunk Plugin",
	"description": "A connect addon that forwards JSD data to Splunk Endpoint",
	"vendor": {
         "name": "Forty8FiftyLabs, Inc.",
         "url": "http://www.forty8FiftyLabs.com"
     },
     "authentication": {
		"type": "jwt"
	},
	"lifecycle": {
		"installed": "/installed",
		"uninstalled": "/uninstalled"
	},
	"scopes": ["read", "write"],
	"modules": {
		"configurePage": {
			"url": "/plugin/",
			"name": {
				"value": "Configuration Page"
			},
			"key": "my-config-page"
		}
	}
}
